Multilevel models
…
`$$EV = V \cdot Pr(S = 1 | \mathbf{x})$$`
#### We need a reliable estimate for goal scoring probability `\(\widehat{Pr}(S = 1| x)\)`

--

_So what should we do?_

---

## NHL shot data example

Used [hockeyR package](https://hockeyr.netlify.app/) to construct dataset of shots [available here](https://data.scorenetwork.org/hockey/nhl-shots.html)

```
## # A tibble: 71,089 × 11
##     game_id period shooting_player shooting_team goalie_name goalie_team x_fixed
##       <dbl>  <dbl> <chr>           <chr>         <chr>       <chr>         <dbl>
##  1   2.02e9      1 Steven.Stamkos  Tampa Bay Li… Tristan.Ja… Pittsburgh…      61
##  2   2.02e9      1 Brock.McGinn    Pittsburgh P… Andrei.Vas… Tampa Bay …     -65
##  3   2.02e9      1 Jan.Rutta       Tampa Bay Li… Tristan.Ja… Pittsburgh…      -8
##  4   2.02e9      1 Danton.Heinen   Pittsburgh P… Andrei.Vas… Tampa Bay …     -60
##  5   2.02e9      1 Ondrej.Palat    Tampa Bay Li… Tristan.Ja… Pittsburgh…      63
##  6   2.02e9      1 Mark.Friedman   Pittsburgh P… Andrei.Vas… Tampa Bay …     -63
##  7   2.02e9      1 Dominik.Simon   Pittsburgh P… Andrei.Vas… Tampa Bay …     -61
##  8   2.02e9      1 Victor.Hedman   Tampa Bay Li… Tristan.Ja… Pittsburgh…      64
##  9   2.02e9      1 Bryan.Rust      Pittsburgh P… Andrei.Vas… Tampa Bay …     -75
## 10   2.02e9      1 Drew.O'Connor   Pittsburgh P… Andrei.Vas… Tampa Bay …     -73
## # ℹ 71,079 more rows
## # ℹ 4 more variables: y_fixed <dbl>, shot_distance <dbl>, shot_angle <dbl>,
## #   is_goal <dbl>
```
…
